%YAML 1.1
%TAG !u! tag:unity3d.com,2011:
--- !u!21 &2100000
Material:
  serializedVersion: 6
  m_ObjectHideFlags: 0
  m_CorrespondingSourceObject: {fileID: 0}
  m_PrefabInstance: {fileID: 0}
  m_PrefabAsset: {fileID: 0}
  m_Name: Shader
  m_Shader: {fileID: -6465566751694194690, guid: 509e745ba55c37b42b915d41cf2ba7ce,
    type: 3}
  m_ShaderKeywords: 
  m_LightmapFlags: 2
  m_EnableInstancingVariants: 0
  m_DoubleSidedGI: 0
  m_CustomRenderQueue: -1
  stringTagMap: {}
  disabledShaderPasses: []
  m_SavedProperties:
    serializedVersion: 3
    m_TexEnvs:
    - _SampleTexture2D_1EE1EE17_Texture_1:
        m_Texture: {fileID: 10300, guid: 0000000000000000f000000000000000, type: 0}
        m_Scale: {x: 1, y: 1}
        m_Offset: {x: 0, y: 0}
    m_Floats:
    - Vector1_37164C03: 1139.5
    - Vector1_D91694F9: -11.33
    m_Colors:
    - Color_B2CD2FD7: {r: 1, g: 0.5529412, b: 0, a: 0}
    - Vector3_23E04904: {r: 2.19, g: 190.2, b: 43.1, a: -22.9}
    - Vector3_E27AF43A: {r: -6.58, g: 65.8, b: 12, a: 0}
