%YAML 1.1
%TAG !u! tag:unity3d.com,2011:
--- !u!114 &-1110115186387250887
MonoBehaviour:
  m_ObjectHideFlags: 11
  m_CorrespondingSourceObject: {fileID: 0}
  m_PrefabInstance: {fileID: 0}
  m_PrefabAsset: {fileID: 0}
  m_GameObject: {fileID: 0}
  m_Enabled: 1
  m_EditorHideFlags: 0
  m_Script: {fileID: 11500000, guid: d0353a89b1f911e48b9e16bdc9f2e058, type: 3}
  m_Name: 
  m_EditorClassIdentifier: 
  version: 1
--- !u!21 &2100000
Material:
  serializedVersion: 6
  m_ObjectHideFlags: 0
  m_CorrespondingSourceObject: {fileID: 0}
  m_PrefabInstance: {fileID: 0}
  m_PrefabAsset: {fileID: 0}
  m_Name: ConstructionLight_Mat
  m_Shader: {fileID: -6465566751694194690, guid: 509e745ba55c37b42b915d41cf2ba7ce,
    type: 3}
  m_ShaderKeywords: _EMISSION _METALLICSPECGLOSSMAP
  m_LightmapFlags: 2
  m_EnableInstancingVariants: 0
  m_DoubleSidedGI: 0
  m_CustomRenderQueue: -1
  stringTagMap: {}
  disabledShaderPasses: []
  m_SavedProperties:
    serializedVersion: 3
    m_TexEnvs:
    - _BaseMap:
        m_Texture: {fileID: 2800000, guid: 2ec6e1532acb1254f9f3797b5d82db44, type: 3}
        m_Scale: {x: -0.86, y: 1}
        m_Offset: {x: 0, y: 0}
    - _BumpMap:
        m_Texture: {fileID: 2800000, guid: e21bd9673bcc8954fa8b4ed0f92661da, type: 3}
        m_Scale: {x: 1, y: 1}
        m_Offset: {x: 0, y: 0}
    - _DetailAlbedoMap:
        m_Texture: {fileID: 0}
        m_Scale: {x: 1, y: 1}
        m_Offset: {x: 0, y: 0}
    - _DetailMask:
        m_Texture: {fileID: 0}
        m_Scale: {x: 1, y: 1}
        m_Offset: {x: 0, y: 0}
    - _DetailNormalMap:
        m_Texture: {fileID: 0}
        m_Scale: {x: 1, y: 1}
        m_Offset: {x: 0, y: 0}
    - _EmissionMap:
        m_Texture: {fileID: 0}
        m_Scale: {x: 1, y: 1}
        m_Offset: {x: 0, y: 0}
    - _MainTex:
        m_Texture: {fileID: 2800000, guid: 2ec6e1532acb1254f9f3797b5d82db44, type: 3}
        m_Scale: {x: -0.86, y: 1}
        m_Offset: {x: 0, y: 0}
    - _MetallicGlossMap:
        m_Texture: {fileID: 2800000, guid: ee7680f1374ab4449b6d5f6b2c2c1936, type: 3}
        m_Scale: {x: 1, y: 1}
        m_Offset: {x: 0, y: 0}
    - _OcclusionMap:
        m_Texture: {fileID: 0}
        m_Scale: {x: 1, y: 1}
        m_Offset: {x: 0, y: 0}
    - _ParallaxMap:
        m_Texture: {fileID: 0}
        m_Scale: {x: 1, y: 1}
        m_Offset: {x: 0, y: 0}
    - _SampleTexture2D_1EE1EE17_Texture_1:
        m_Texture: {fileID: 10300, guid: 0000000000000000f000000000000000, type: 0}
        m_Scale: {x: 1, y: 1}
        m_Offset: {x: 0, y: 0}
    - _SpecGlossMap:
        m_Texture: {fileID: 0}
        m_Scale: {x: 1, y: 1}
        m_Offset: {x: 0, y: 0}
    m_Floats:
    - Vector1_37164C03: 1000
    - Vector1_D91694F9: 8.4
    - _AlphaClip: 0
    - _Blend: 0
    - _BumpScale: 1
    - _Cull: 2
    - _Cutoff: 0.5
    - _DetailNormalMapScale: 1
    - _DstBlend: 0
    - _EnvironmentReflections: 1
    - _GlossMapScale: 1
    - _Glossiness: 0.5
    - _GlossyReflections: 1
    - _Metallic: 0
    - _Mode: 0
    - _OcclusionStrength: 1
    - _Parallax: 0.02
    - _QueueOffset: 0
    - _ReceiveShadows: 1
    - _Smoothness: 1
    - _SmoothnessTextureChannel: 0
    - _SpecularHighlights: 1
    - _SrcBlend: 1
    - _Surface: 0
    - _UVSec: 0
    - _WorkflowMode: 1
    - _ZWrite: 1
    m_Colors:
    - Color_B2CD2FD7: {r: 0.9150943, g: 0.8576013, b: 0, a: 0}
    - Vector3_23E04904: {r: -0.18, g: 1.04, b: 0.53, a: 2.83}
    - Vector3_E27AF43A: {r: -3.67, g: 131.1, b: -4.54, a: 0}
    - _BaseColor: {r: 1, g: 1, b: 1, a: 1}
    - _Color: {r: 1, g: 1, b: 1, a: 1}
    - _EmissionColor: {r: 0.25008202, g: 0, b: 1, a: 1}
    - _SpecColor: {r: 0.19999996, g: 0.19999996, b: 0.19999996, a: 1}
